1n4007.csv

Record Length,2500,Points,-2.50E-05,5.52E-01
Sample Interval,2.00E-08,s,-2.50E-05,5.52E-01
Trigger Point,1.25E+03,Samples,-2.50E-05,5.52E-01
,,,-2.49E-05,5.52E-01
,,,-2.49E-05,5.44E-01
,,,-2.49E-05,5.52E-01
Source,CH2,,-2.49E-05,5.52E-01
Vertical Units,Volts,,-2.49E-05,5.44E-01
Vertical Scale,2.00E-01,,-2.48E-05,5.52E-01
Vertical Offset,0,,-2.48E-05,5.52E-01
Horizontal Units,s,,-2.48E-05,5.44E-01
Horizontal Scale,5.00E-06,,-2.48E-05,5.52E-01
Pt Fmt,Y,,-2.48E-05,5.44E-01
Yzero,0,,-2.47E-05,5.52E-01
Probe Atten,1,,-2.47E-05,5.44E-01
,,,-2.47E-05,5.44E-01
Note,TBS 1072B-EDU - 4:42:34 PM   29-Apr-22,,-2.47E-05,5.52E-01
,,,-2.47E-05,5.44E-01
,,,-2.46E-05,5.52E-01
,,,-2.46E-05,5.44E-01
,,,-2.46E-05,5.52E-01
,,,-2.46E-05,5.44E-01
,,,-2.46E-05,5.52E-01
,,,-2.45E-05,5.52E-01
,,,-2.45E-05,5.44E-01
,,,-2.45E-05,5.44E-01
,,,-2.45E-05,5.44E-01
,,,-2.45E-05,5.44E-01
,,,-2.44E-05,5.44E-01
,,,-2.44E-05,5.52E-01
,,,-2.44E-05,5.52E-01
,,,-2.44E-05,5.52E-01
,,,-2.44E-05,5.44E-01
,,,-2.43E-05,5.44E-01
,,,-2.43E-05,5.52E-01
,,,-2.43E-05,5.52E-01
,,,-2.43E-05,5.44E-01
,,,-2.43E-05,5.52E-01
,,,-2.42E-05,5.52E-01
,,,-2.42E-05,5.52E-01
,,,-2.42E-05,5.44E-01
,,,-2.42E-05,5.60E-01
,,,-2.42E-05,5.44E-01
,,,-2.41E-05,5.52E-01
,,,-2.41E-05,5.52E-01
,,,-2.41E-05,5.52E-01
,,,-2.41E-05,5.52E-01
,,,-2.41E-05,5.52E-01
,,,-2.40E-05,5.52E-01
,,,-2.40E-05,5.60E-01
,,,-2.40E-05,5.52E-01
,,,-2.40E-05,5.52E-01
,,,-2.40E-05,5.52E-01
,,,-2.39E-05,5.52E-01
,,,-2.39E-05,5.52E-01
,,,-2.39E-05,5.52E-01
,,,-2.39E-05,5.44E-01
,,,-2.39E-05,5.52E-01
,,,-2.38E-05,5.44E-01
,,,-2.38E-05,5.44E-01
,,,-2.38E-05,5.52E-01
,,,-2.38E-05,5.44E-01
,,,-2.38E-05,5.44E-01
,,,-2.37E-05,5.52E-01
,,,-2.37E-05,5.52E-01
,,,-2.37E-05,5.52E-01
,,,-2.37E-05,5.44E-01
,,,-2.37E-05,5.52E-01
,,,-2.36E-05,5.52E-01
,,,-2.36E-05,5.44E-01
,,,-2.36E-05,5.52E-01
,,,-2.36E-05,5.52E-01
,,,-2.36E-05,5.44E-01
,,,-2.35E-05,5.52E-01
,,,-2.35E-05,5.44E-01
,,,-2.35E-05,5.44E-01
,,,-2.35E-05,5.52E-01
,,,-2.35E-05,5.52E-01
,,,-2.34E-05,5.44E-01
,,,-2.34E-05,5.44E-01
,,,-2.34E-05,5.52E-01
,,,-2.34E-05,5.44E-01
,,,-2.34E-05,5.44E-01
,,,-2.33E-05,5.44E-01
,,,-2.33E-05,5.60E-01
,,,-2.33E-05,5.52E-01
,,,-2.33E-05,5.44E-01
,,,-2.33E-05,5.52E-01
,,,-2.32E-05,5.52E-01
,,,-2.32E-05,5.52E-01
,,,-2.32E-05,5.52E-01
,,,-2.32E-05,5.52E-01
,,,-2.32E-05,5.52E-01
,,,-2.31E-05,5.44E-01
,,,-2.31E-05,5.44E-01
,,,-2.31E-05,5.44E-01
,,,-2.31E-05,5.44E-01
,,,-2.31E-05,5.52E-01
,,,-2.30E-05,5.52E-01
,,,-2.30E-05,5.52E-01
,,,-2.30E-05,5.52E-01
,,,-2.30E-05,5.44E-01
,,,-2.30E-05,5.52E-01
,,,-2.29E-05,5.52E-01
,,,-2.29E-05,5.44E-01
,,,-2.29E-05,5.44E-01
,,,-2.29E-05,5.52E-01
,,,-2.29E-05,5.44E-01
,,,-2.28E-05,5.44E-01
,,,-2.28E-05,5.44E-01
,,,-2.28E-05,5.44E-01
,,,-2.28E-05,5.52E-01
,,,-2.28E-05,5.44E-01
,,,-2.27E-05,5.44E-01
,,,-2.27E-05,5.52E-01
,,,-2.27E-05,5.52E-01
,,,-2.27E-05,5.44E-01
,,,-2.27E-05,5.52E-01
,,,-2.26E-05,5.36E-01
,,,-2.26E-05,5.52E-01
,,,-2.26E-05,5.52E-01
,,,-2.26E-05,5.52E-01
,,,-2.26E-05,5.52E-01
,,,-2.25E-05,5.52E-01
,,,-2.25E-05,5.44E-01
,,,-2.25E-05,5.44E-01
,,,-2.25E-05,5.60E-01
,,,-2.25E-05,5.52E-01
,,,-2.24E-05,5.52E-01
,,,-2.24E-05,5.52E-01
,,,-2.24E-05,5.52E-01
,,,-2.24E-05,5.44E-01
,,,-2.24E-05,5.44E-01
,,,-2.23E-05,5.52E-01
,,,-2.23E-05,5.44E-01
,,,-2.23E-05,5.60E-01
,,,-2.23E-05,5.52E-01
,,,-2.23E-05,5.52E-01
,,,-2.22E-05,5.44E-01
,,,-2.22E-05,5.52E-01
,,,-2.22E-05,5.52E-01
,,,-2.22E-05,5.44E-01
,,,-2.22E-05,5.44E-01
,,,-2.21E-05,5.44E-01
,,,-2.21E-05,5.44E-01
,,,-2.21E-05,5.52E-01
,,,-2.21E-05,5.44E-01
,,,-2.21E-05,5.52E-01
,,,-2.20E-05,5.52E-01
,,,-2.20E-05,5.44E-01
,,,-2.20E-05,5.52E-01
,,,-2.20E-05,5.52E-01
,,,-2.20E-05,5.44E-01
,,,-2.19E-05,5.44E-01
,,,-2.19E-05,5.44E-01
,,,-2.19E-05,5.52E-01
,,,-2.19E-05,5.52E-01
,,,-2.19E-05,5.52E-01
,,,-2.18E-05,5.52E-01
,,,-2.18E-05,5.44E-01
,,,-2.18E-05,5.44E-01
,,,-2.18E-05,5.52E-01
,,,-2.18E-05,5.52E-01
,,,-2.17E-05,5.44E-01
,,,-2.17E-05,5.44E-01
,,,-2.17E-05,5.52E-01
,,,-2.17E-05,5.52E-01
,,,-2.17E-05,5.52E-01
,,,-2.16E-05,5.44E-01
,,,-2.16E-05,5.44E-01
,,,-2.16E-05,5.44E-01
,,,-2.16E-05,5.52E-01
,,,-2.16E-05,5.52E-01
,,,-2.15E-05,5.52E-01
,,,-2.15E-05,5.44E-01
,,,-2.15E-05,5.60E-01
,,,-2.15E-05,5.44E-01
,,,-2.15E-05,5.52E-01
,,,-2.14E-05,5.44E-01
,,,-2.14E-05,5.52E-01
,,,-2.14E-05,5.44E-01
,,,-2.14E-05,5.44E-01
,,,-2.14E-05,5.52E-01
,,,-2.13E-05,5.52E-01
,,,-2.13E-05,5.44E-01
,,,-2.13E-05,5.44E-01
,,,-2.13E-05,5.52E-01
,,,-2.13E-05,5.44E-01
,,,-2.12E-05,5.44E-01
,,,-2.12E-05,5.52E-01
,,,-2.12E-05,5.44E-01
,,,-2.12E-05,5.52E-01
,,,-2.12E-05,5.44E-01
,,,-2.11E-05,5.44E-01
,,,-2.11E-05,5.52E-01
,,,-2.11E-05,5.52E-01
,,,-2.11E-05,5.52E-01
,,,-2.11E-05,5.44E-01
,,,-2.10E-05,5.60E-01
,,,-2.10E-05,5.44E-01
,,,-2.10E-05,5.44E-01
,,,-2.10E-05,5.52E-01
,,,-2.10E-05,5.52E-01
,,,-2.09E-05,5.44E-01
,,,-2.09E-05,5.44E-01
,,,-2.09E-05,5.52E-01
,,,-2.09E-05,5.36E-01
,,,-2.09E-05,5.44E-01
,,,-2.08E-05,5.52E-01
,,,-2.08E-05,5.44E-01
,,,-2.08E-05,5.52E-01
,,,-2.08E-05,5.52E-01
,,,-2.08E-05,5.44E-01
,,,-2.07E-05,5.52E-01
,,,-2.07E-05,5.44E-01
,,,-2.07E-05,5.52E-01
,,,-2.07E-05,5.60E-01
,,,-2.07E-05,5.44E-01
,,,-2.06E-05,5.44E-01
,,,-2.06E-05,5.52E-01
,,,-2.06E-05,5.52E-01
,,,-2.06E-05,5.52E-01
,,,-2.06E-05,5.52E-01
,,,-2.05E-05,5.52E-01
,,,-2.05E-05,5.44E-01
,,,-2.05E-05,5.52E-01
,,,-2.05E-05,5.44E-01
,,,-2.05E-05,5.52E-01
,,,-2.04E-05,5.52E-01
,,,-2.04E-05,5.52E-01
,,,-2.04E-05,5.44E-01
,,,-2.04E-05,5.52E-01
,,,-2.04E-05,5.52E-01
,,,-2.03E-05,5.52E-01
,,,-2.03E-05,5.52E-01
,,,-2.03E-05,5.52E-01
,,,-2.03E-05,5.52E-01
,,,-2.03E-05,5.60E-01
,,,-2.02E-05,5.52E-01
,,,-2.02E-05,5.44E-01
,,,-2.02E-05,5.52E-01
,,,-2.02E-05,5.52E-01
,,,-2.02E-05,5.44E-01
,,,-2.01E-05,5.52E-01
,,,-2.01E-05,5.52E-01
,,,-2.01E-05,5.60E-01
,,,-2.01E-05,5.52E-01
,,,-2.01E-05,5.52E-01
,,,-2.00E-05,5.44E-01
,,,-2.00E-05,5.52E-01
,,,-2.00E-05,5.52E-01
,,,-2.00E-05,5.52E-01
,,,-2.00E-05,5.60E-01
,,,-1.99E-05,5.52E-01
,,,-1.99E-05,5.52E-01
,,,-1.99E-05,5.60E-01
,,,-1.99E-05,5.52E-01
,,,-1.99E-05,5.52E-01
,,,-1.98E-05,5.44E-01
,,,-1.98E-05,5.52E-01
,,,-1.98E-05,5.44E-01
,,,-1.98E-05,5.52E-01
,,,-1.98E-05,5.44E-01
,,,-1.97E-05,5.44E-01
,,,-1.97E-05,5.52E-01
,,,-1.97E-05,5.60E-01
,,,-1.97E-05,5.44E-01
,,,-1.97E-05,5.44E-01
,,,-1.96E-05,5.52E-01
,,,-1.96E-05,5.52E-01
,,,-1.96E-05,5.52E-01
,,,-1.96E-05,5.52E-01
,,,-1.96E-05,5.44E-01
,,,-1.95E-05,5.44E-01
,,,-1.95E-05,5.52E-01
,,,-1.95E-05,5.52E-01
,,,-1.95E-05,5.44E-01
,,,-1.95E-05,5.52E-01
,,,-1.94E-05,5.60E-01
,,,-1.94E-05,5.44E-01
,,,-1.94E-05,5.52E-01
,,,-1.94E-05,5.44E-01
,,,-1.94E-05,5.44E-01
,,,-1.93E-05,5.44E-01
,,,-1.93E-05,5.52E-01
,,,-1.93E-05,5.52E-01
,,,-1.93E-05,5.52E-01
,,,-1.93E-05,5.52E-01
,,,-1.92E-05,5.52E-01
,,,-1.92E-05,5.52E-01
,,,-1.92E-05,5.52E-01
,,,-1.92E-05,5.52E-01
,,,-1.92E-05,5.44E-01
,,,-1.91E-05,5.44E-01
,,,-1.91E-05,5.52E-01
,,,-1.91E-05,5.36E-01
,,,-1.91E-05,5.60E-01
,,,-1.91E-05,5.44E-01
,,,-1.90E-05,5.60E-01
,,,-1.90E-05,5.44E-01
,,,-1.90E-05,5.52E-01
,,,-1.90E-05,5.52E-01
,,,-1.90E-05,5.52E-01
,,,-1.89E-05,5.52E-01
,,,-1.89E-05,5.52E-01
,,,-1.89E-05,5.44E-01
,,,-1.89E-05,5.44E-01
,,,-1.89E-05,5.44E-01
,,,-1.88E-05,5.44E-01
,,,-1.88E-05,5.44E-01
,,,-1.88E-05,5.36E-01
,,,-1.88E-05,5.44E-01
,,,-1.88E-05,5.44E-01
,,,-1.87E-05,5.52E-01
,,,-1.87E-05,5.60E-01
,,,-1.87E-05,5.60E-01
,,,-1.87E-05,5.44E-01
,,,-1.87E-05,5.44E-01
,,,-1.86E-05,5.52E-01
,,,-1.86E-05,5.52E-01
,,,-1.86E-05,5.44E-01
,,,-1.86E-05,5.52E-01
,,,-1.86E-05,5.44E-01
,,,-1.85E-05,5.52E-01
,,,-1.85E-05,5.52E-01
,,,-1.85E-05,5.52E-01
,,,-1.85E-05,5.52E-01
,,,-1.85E-05,5.52E-01
,,,-1.84E-05,5.52E-01
,,,-1.84E-05,5.44E-01
,,,-1.84E-05,5.36E-01
,,,-1.84E-05,5.44E-01
,,,-1.84E-05,5.44E-01
,,,-1.83E-05,5.44E-01
,,,-1.83E-05,5.52E-01
,,,-1.83E-05,5.52E-01
,,,-1.83E-05,5.44E-01
,,,-1.83E-05,5.44E-01
,,,-1.82E-05,5.52E-01
,,,-1.82E-05,5.44E-01
,,,-1.82E-05,5.44E-01
,,,-1.82E-05,5.52E-01
,,,-1.82E-05,5.44E-01
,,,-1.81E-05,5.60E-01
,,,-1.81E-05,5.44E-01
,,,-1.81E-05,5.60E-01
,,,-1.81E-05,5.52E-01
,,,-1.81E-05,5.52E-01
,,,-1.80E-05,5.52E-01
,,,-1.80E-05,5.52E-01
,,,-1.80E-05,5.44E-01
,,,-1.80E-05,5.44E-01
,,,-1.80E-05,5.44E-01
,,,-1.79E-05,5.52E-01
,,,-1.79E-05,5.52E-01
,,,-1.79E-05,5.44E-01
,,,-1.79E-05,5.44E-01
,,,-1.79E-05,5.44E-01
,,,-1.78E-05,5.44E-01
,,,-1.78E-05,5.52E-01
,,,-1.78E-05,5.52E-01
,,,-1.78E-05,5.44E-01
,,,-1.78E-05,5.52E-01
,,,-1.77E-05,5.44E-01
,,,-1.77E-05,5.60E-01
,,,-1.77E-05,5.52E-01
,,,-1.77E-05,5.44E-01
,,,-1.77E-05,5.44E-01
,,,-1.76E-05,5.52E-01
,,,-1.76E-05,5.60E-01
,,,-1.76E-05,5.60E-01
,,,-1.76E-05,5.44E-01
,,,-1.76E-05,5.44E-01
,,,-1.75E-05,5.60E-01
,,,-1.75E-05,5.44E-01
,,,-1.75E-05,5.52E-01
,,,-1.75E-05,5.52E-01
,,,-1.75E-05,5.52E-01
,,,-1.74E-05,5.52E-01
,,,-1.74E-05,5.44E-01
,,,-1.74E-05,5.44E-01
,,,-1.74E-05,5.52E-01
,,,-1.74E-05,5.44E-01
,,,-1.73E-05,5.44E-01
,,,-1.73E-05,5.52E-01
,,,-1.73E-05,5.44E-01
,,,-1.73E-05,5.52E-01
,,,-1.73E-05,5.52E-01
,,,-1.72E-05,5.52E-01
,,,-1.72E-05,5.44E-01
,,,-1.72E-05,5.52E-01
,,,-1.72E-05,5.52E-01
,,,-1.72E-05,5.44E-01
,,,-1.71E-05,5.44E-01
,,,-1.71E-05,5.52E-01
,,,-1.71E-05,5.60E-01
,,,-1.71E-05,5.52E-01
,,,-1.71E-05,5.44E-01
,,,-1.70E-05,5.52E-01
,,,-1.70E-05,5.44E-01
,,,-1.70E-05,5.44E-01
,,,-1.70E-05,5.44E-01
,,,-1.70E-05,5.44E-01
,,,-1.69E-05,5.44E-01
,,,-1.69E-05,5.52E-01
,,,-1.69E-05,5.52E-01
,,,-1.69E-05,5.52E-01
,,,-1.69E-05,5.44E-01
,,,-1.68E-05,5.44E-01
,,,-1.68E-05,5.44E-01
,,,-1.68E-05,5.52E-01
,,,-1.68E-05,5.52E-01
,,,-1.68E-05,5.52E-01
,,,-1.67E-05,5.52E-01
,,,-1.67E-05,5.60E-01
,,,-1.67E-05,5.44E-01
,,,-1.67E-05,5.52E-01
,,,-1.67E-05,5.52E-01
,,,-1.66E-05,5.44E-01
,,,-1.66E-05,5.52E-01
,,,-1.66E-05,5.52E-01
,,,-1.66E-05,5.52E-01
,,,-1.66E-05,5.52E-01
,,,-1.65E-05,5.52E-01
,,,-1.65E-05,5.44E-01
,,,-1.65E-05,5.44E-01
,,,-1.65E-05,5.52E-01
,,,-1.65E-05,5.52E-01
,,,-1.64E-05,5.52E-01
,,,-1.64E-05,5.44E-01
,,,-1.64E-05,5.44E-01
,,,-1.64E-05,5.44E-01
,,,-1.64E-05,5.52E-01
,,,-1.63E-05,5.52E-01
,,,-1.63E-05,5.44E-01
,,,-1.63E-05,5.52E-01
,,,-1.63E-05,5.52E-01
,,,-1.63E-05,5.44E-01
,,,-1.62E-05,5.44E-01
,,,-1.62E-05,5.44E-01
,,,-1.62E-05,5.44E-01
,,,-1.62E-05,5.44E-01
,,,-1.62E-05,5.52E-01
,,,-1.61E-05,5.52E-01
,,,-1.61E-05,5.52E-01
,,,-1.61E-05,5.44E-01
,,,-1.61E-05,5.52E-01
,,,-1.61E-05,5.52E-01
,,,-1.60E-05,5.52E-01
,,,-1.60E-05,5.52E-01
,,,-1.60E-05,5.52E-01
,,,-1.60E-05,5.44E-01
,,,-1.60E-05,5.52E-01
,,,-1.59E-05,5.52E-01
,,,-1.59E-05,5.52E-01
,,,-1.59E-05,5.44E-01
,,,-1.59E-05,5.52E-01
,,,-1.59E-05,5.44E-01
,,,-1.58E-05,5.44E-01
,,,-1.58E-05,5.52E-01
,,,-1.58E-05,5.52E-01
,,,-1.58E-05,5.52E-01
,,,-1.58E-05,5.52E-01
,,,-1.57E-05,5.52E-01
,,,-1.57E-05,5.60E-01
,,,-1.57E-05,5.44E-01
,,,-1.57E-05,5.44E-01
,,,-1.57E-05,5.44E-01
,,,-1.56E-05,5.44E-01
,,,-1.56E-05,5.52E-01
,,,-1.56E-05,5.52E-01
,,,-1.56E-05,5.44E-01
,,,-1.56E-05,5.52E-01
,,,-1.55E-05,5.44E-01
,,,-1.55E-05,5.52E-01
,,,-1.55E-05,5.52E-01
,,,-1.55E-05,5.60E-01
,,,-1.55E-05,5.52E-01
,,,-1.54E-05,5.52E-01
,,,-1.54E-05,5.52E-01
,,,-1.54E-05,5.60E-01
,,,-1.54E-05,5.52E-01
,,,-1.54E-05,5.60E-01
,,,-1.53E-05,5.52E-01
,,,-1.53E-05,5.44E-01
,,,-1.53E-05,5.44E-01
,,,-1.53E-05,5.60E-01
,,,-1.53E-05,5.44E-01
,,,-1.52E-05,5.52E-01
,,,-1.52E-05,5.52E-01
,,,-1.52E-05,5.44E-01
,,,-1.52E-05,5.44E-01
,,,-1.52E-05,5.52E-01
,,,-1.51E-05,5.44E-01
,,,-1.51E-05,5.44E-01
,,,-1.51E-05,5.52E-01
,,,-1.51E-05,5.44E-01
,,,-1.51E-05,5.52E-01
,,,-1.50E-05,5.52E-01
,,,-1.50E-05,5.44E-01
,,,-1.50E-05,5.52E-01
,,,-1.50E-05,5.52E-01
,,,-1.50E-05,5.44E-01
,,,-1.49E-05,5.52E-01
,,,-1.49E-05,5.44E-01
,,,-1.49E-05,5.52E-01
,,,-1.49E-05,5.44E-01
,,,-1.49E-05,5.52E-01
,,,-1.48E-05,5.52E-01
,,,-1.48E-05,5.52E-01
,,,-1.48E-05,5.52E-01
,,,-1.48E-05,5.44E-01
,,,-1.48E-05,5.52E-01
,,,-1.47E-05,5.52E-01
,,,-1.47E-05,5.44E-01
,,,-1.47E-05,5.52E-01
,,,-1.47E-05,5.44E-01
,,,-1.47E-05,5.44E-01
,,,-1.46E-05,5.20E-01
,,,-1.46E-05,5.36E-01
,,,-1.46E-05,5.52E-01
,,,-1.46E-05,5.36E-01
,,,-1.46E-05,5.28E-01
,,,-1.45E-05,5.28E-01
,,,-1.45E-05,5.44E-01
,,,-1.45E-05,5.36E-01
,,,-1.45E-05,5.36E-01
,,,-1.45E-05,5.28E-01
,,,-1.44E-05,5.20E-01
,,,-1.44E-05,5.36E-01
,,,-1.44E-05,5.36E-01
,,,-1.44E-05,5.28E-01
,,,-1.44E-05,5.36E-01
,,,-1.43E-05,5.36E-01
,,,-1.43E-05,5.36E-01
,,,-1.43E-05,5.36E-01
,,,-1.43E-05,5.36E-01
,,,-1.43E-05,5.28E-01
,,,-1.42E-05,5.36E-01
,,,-1.42E-05,5.28E-01
,,,-1.42E-05,5.28E-01
,,,-1.42E-05,5.28E-01
,,,-1.42E-05,5.28E-01
,,,-1.41E-05,5.36E-01
,,,-1.41E-05,5.28E-01
,,,-1.41E-05,5.28E-01
,,,-1.41E-05,5.28E-01
,,,-1.41E-05,5.28E-01
,,,-1.40E-05,5.36E-01
,,,-1.40E-05,5.28E-01
,,,-1.40E-05,5.28E-01
,,,-1.40E-05,5.28E-01
,,,-1.40E-05,5.36E-01
,,,-1.39E-05,5.28E-01
,,,-1.39E-05,5.28E-01
,,,-1.39E-05,5.20E-01
,,,-1.39E-05,5.20E-01
,,,-1.39E-05,5.28E-01
,,,-1.38E-05,5.36E-01
,,,-1.38E-05,5.28E-01
,,,-1.38E-05,5.28E-01
,,,-1.38E-05,5.28E-01
,,,-1.38E-05,5.28E-01
,,,-1.37E-05,5.28E-01
,,,-1.37E-05,5.28E-01
,,,-1.37E-05,5.20E-01
,,,-1.37E-05,5.20E-01
,,,-1.37E-05,5.20E-01
,,,-1.36E-05,5.20E-01
,,,-1.36E-05,5.20E-01
,,,-1.36E-05,5.28E-01
,,,-1.36E-05,5.20E-01
,,,-1.36E-05,5.20E-01
,,,-1.35E-05,5.20E-01
,,,-1.35E-05,5.20E-01
,,,-1.35E-05,5.28E-01
,,,-1.35E-05,5.28E-01
,,,-1.35E-05,5.20E-01
,,,-1.34E-05,5.20E-01
,,,-1.34E-05,5.28E-01
,,,-1.34E-05,5.28E-01
,,,-1.34E-05,5.20E-01
,,,-1.34E-05,5.20E-01
,,,-1.33E-05,5.20E-01
,,,-1.33E-05,5.20E-01
,,,-1.33E-05,5.20E-01
,,,-1.33E-05,5.28E-01
,,,-1.33E-05,5.20E-01
,,,-1.32E-05,5.20E-01
,,,-1.32E-05,5.28E-01
,,,-1.32E-05,5.20E-01
,,,-1.32E-05,5.20E-01
,,,-1.32E-05,5.20E-01
,,,-1.31E-05,5.20E-01
,,,-1.31E-05,5.20E-01
,,,-1.31E-05,5.12E-01
,,,-1.31E-05,5.20E-01
,,,-1.31E-05,5.12E-01
,,,-1.30E-05,5.20E-01
,,,-1.30E-05,5.20E-01
,,,-1.30E-05,5.20E-01
,,,-1.30E-05,5.20E-01
,,,-1.30E-05,5.20E-01
,,,-1.29E-05,5.12E-01
,,,-1.29E-05,5.12E-01
,,,-1.29E-05,5.20E-01
,,,-1.29E-05,5.20E-01
,,,-1.29E-05,5.12E-01
,,,-1.28E-05,5.12E-01
,,,-1.28E-05,5.12E-01
,,,-1.28E-05,5.12E-01
,,,-1.28E-05,5.12E-01
,,,-1.28E-05,5.20E-01
,,,-1.27E-05,5.12E-01
,,,-1.27E-05,5.20E-01
,,,-1.27E-05,5.20E-01
,,,-1.27E-05,5.12E-01
,,,-1.27E-05,5.12E-01
,,,-1.26E-05,5.12E-01
,,,-1.26E-05,5.20E-01
,,,-1.26E-05,5.12E-01
,,,-1.26E-05,5.12E-01
,,,-1.26E-05,5.04E-01
,,,-1.25E-05,5.12E-01
,,,-1.25E-05,5.12E-01
,,,-1.25E-05,5.20E-01
,,,-1.25E-05,5.12E-01
,,,-1.25E-05,5.04E-01
,,,-1.24E-05,5.12E-01
,,,-1.24E-05,5.12E-01
,,,-1.24E-05,5.12E-01
,,,-1.24E-05,5.20E-01
,,,-1.24E-05,5.12E-01
,,,-1.23E-05,5.12E-01
,,,-1.23E-05,5.12E-01
,,,-1.23E-05,5.12E-01
,,,-1.23E-05,5.04E-01
,,,-1.23E-05,5.12E-01
,,,-1.22E-05,5.04E-01
,,,-1.22E-05,5.12E-01
,,,-1.22E-05,5.12E-01
,,,-1.22E-05,5.12E-01
,,,-1.22E-05,5.04E-01
,,,-1.21E-05,5.12E-01
,,,-1.21E-05,5.12E-01
,,,-1.21E-05,5.12E-01
,,,-1.21E-05,5.12E-01
,,,-1.21E-05,5.04E-01
,,,-1.20E-05,5.12E-01
,,,-1.20E-05,5.04E-01
,,,-1.20E-05,5.12E-01
,,,-1.20E-05,5.12E-01
,,,-1.20E-05,5.04E-01
,,,-1.19E-05,5.12E-01
,,,-1.19E-05,5.12E-01
,,,-1.19E-05,5.04E-01
,,,-1.19E-05,5.12E-01
,,,-1.19E-05,5.12E-01
,,,-1.18E-05,5.04E-01
,,,-1.18E-05,5.20E-01
,,,-1.18E-05,5.04E-01
,,,-1.18E-05,5.12E-01
,,,-1.18E-05,5.12E-01
,,,-1.17E-05,5.04E-01
,,,-1.17E-05,4.96E-01
,,,-1.17E-05,5.12E-01
,,,-1.17E-05,5.04E-01
,,,-1.17E-05,5.12E-01
,,,-1.16E-05,5.12E-01
,,,-1.16E-05,5.12E-01
,,,-1.16E-05,5.04E-01
,,,-1.16E-05,4.96E-01
,,,-1.16E-05,5.04E-01
,,,-1.15E-05,4.96E-01
,,,-1.15E-05,5.12E-01
,,,-1.15E-05,5.12E-01
,,,-1.15E-05,5.04E-01
,,,-1.15E-05,4.96E-01
,,,-1.14E-05,5.12E-01
,,,-1.14E-05,5.12E-01
,,,-1.14E-05,5.04E-01
,,,-1.14E-05,5.04E-01
,,,-1.14E-05,5.12E-01
,,,-1.13E-05,5.04E-01
,,,-1.13E-05,5.04E-01
,,,-1.13E-05,5.04E-01
,,,-1.13E-05,5.04E-01
,,,-1.13E-05,5.04E-01
,,,-1.12E-05,4.96E-01
,,,-1.12E-05,5.04E-01
,,,-1.12E-05,5.04E-01
,,,-1.12E-05,5.04E-01
,,,-1.12E-05,5.04E-01
,,,-1.11E-05,5.04E-01
,,,-1.11E-05,5.04E-01
,,,-1.11E-05,4.96E-01
,,,-1.11E-05,4.96E-01
,,,-1.11E-05,4.96E-01
,,,-1.10E-05,4.96E-01
,,,-1.10E-05,5.04E-01
,,,-1.10E-05,4.96E-01
,,,-1.10E-05,4.96E-01
,,,-1.10E-05,4.96E-01
,,,-1.09E-05,4.96E-01
,,,-1.09E-05,4.96E-01
,,,-1.09E-05,4.96E-01
,,,-1.09E-05,4.96E-01
,,,-1.09E-05,4.88E-01
,,,-1.08E-05,4.96E-01
,,,-1.08E-05,4.96E-01
,,,-1.08E-05,4.96E-01
,,,-1.08E-05,5.04E-01
,,,-1.08E-05,4.96E-01
,,,-1.07E-05,4.96E-01
,,,-1.07E-05,4.96E-01
,,,-1.07E-05,4.96E-01
,,,-1.07E-05,4.96E-01
,,,-1.07E-05,4.96E-01
,,,-1.06E-05,5.04E-01
,,,-1.06E-05,4.96E-01
,,,-1.06E-05,4.96E-01
,,,-1.06E-05,4.96E-01
,,,-1.06E-05,4.96E-01
,,,-1.05E-05,4.96E-01
,,,-1.05E-05,5.04E-01
,,,-1.05E-05,4.96E-01
,,,-1.05E-05,4.96E-01
,,,-1.05E-05,4.88E-01
,,,-1.04E-05,4.88E-01
,,,-1.04E-05,4.88E-01
,,,-1.04E-05,5.04E-01
,,,-1.04E-05,4.96E-01
,,,-1.04E-05,4.88E-01
,,,-1.03E-05,4.96E-01
,,,-1.03E-05,4.96E-01
,,,-1.03E-05,4.96E-01
,,,-1.03E-05,4.96E-01
,,,-1.03E-05,4.88E-01
,,,-1.02E-05,4.96E-01
,,,-1.02E-05,4.96E-01
,,,-1.02E-05,4.96E-01
,,,-1.02E-05,4.96E-01
,,,-1.02E-05,4.88E-01
,,,-1.01E-05,4.96E-01
,,,-1.01E-05,4.96E-01
,,,-1.01E-05,4.96E-01
,,,-1.01E-05,4.88E-01
,,,-1.01E-05,4.96E-01
,,,-1.00E-05,4.96E-01
,,,-1.00E-05,4.88E-01
,,,-1.00E-05,4.96E-01
,,,-9.98E-06,4.96E-01
,,,-9.96E-06,4.88E-01
,,,-9.94E-06,4.96E-01
,,,-9.92E-06,4.88E-01
,,,-9.90E-06,4.88E-01
,,,-9.88E-06,4.96E-01
,,,-9.86E-06,4.96E-01
,,,-9.84E-06,4.96E-01
,,,-9.82E-06,4.88E-01
,,,-9.80E-06,4.96E-01
,,,-9.78E-06,4.88E-01
,,,-9.76E-06,4.88E-01
,,,-9.74E-06,4.88E-01
,,,-9.72E-06,4.80E-01
,,,-9.70E-06,4.88E-01
,,,-9.68E-06,4.88E-01
,,,-9.66E-06,4.88E-01
,,,-9.64E-06,4.88E-01
,,,-9.62E-06,4.88E-01
,,,-9.60E-06,4.88E-01
,,,-9.58E-06,4.88E-01
,,,-9.56E-06,4.80E-01
,,,-9.54E-06,4.96E-01
,,,-9.52E-06,4.80E-01
,,,-9.50E-06,4.88E-01
,,,-9.48E-06,4.80E-01
,,,-9.46E-06,4.88E-01
,,,-9.44E-06,4.88E-01
,,,-9.42E-06,4.88E-01
,,,-9.40E-06,4.88E-01
,,,-9.38E-06,4.88E-01
,,,-9.36E-06,4.88E-01
,,,-9.34E-06,4.88E-01
,,,-9.32E-06,4.88E-01
,,,-9.30E-06,4.80E-01
,,,-9.28E-06,4.88E-01
,,,-9.26E-06,4.80E-01
,,,-9.24E-06,4.80E-01
,,,-9.22E-06,4.88E-01
,,,-9.20E-06,4.80E-01
,,,-9.18E-06,4.88E-01
,,,-9.16E-06,4.88E-01
,,,-9.14E-06,4.88E-01
,,,-9.12E-06,4.80E-01
,,,-9.10E-06,4.80E-01
,,,-9.08E-06,4.80E-01
,,,-9.06E-06,4.80E-01
,,,-9.04E-06,4.80E-01
,,,-9.02E-06,4.80E-01
,,,-9.00E-06,4.88E-01
,,,-8.98E-06,4.80E-01
,,,-8.96E-06,4.88E-01
,,,-8.94E-06,4.80E-01
,,,-8.92E-06,4.80E-01
,,,-8.90E-06,4.88E-01
,,,-8.88E-06,4.72E-01
,,,-8.86E-06,4.80E-01
,,,-8.84E-06,4.80E-01
,,,-8.82E-06,4.80E-01
,,,-8.80E-06,4.88E-01
,,,-8.78E-06,4.88E-01
,,,-8.76E-06,4.64E-01
,,,-8.74E-06,4.80E-01
,,,-8.72E-06,4.80E-01
,,,-8.70E-06,4.72E-01
,,,-8.68E-06,4.72E-01
,,,-8.66E-06,4.80E-01
,,,-8.64E-06,4.72E-01
,,,-8.62E-06,4.80E-01
,,,-8.60E-06,4.72E-01
,,,-8.58E-06,4.80E-01
,,,-8.56E-06,4.80E-01
,,,-8.54E-06,4.80E-01
,,,-8.52E-06,4.80E-01
,,,-8.50E-06,4.72E-01
,,,-8.48E-06,4.72E-01
,,,-8.46E-06,4.72E-01
,,,-8.44E-06,4.72E-01
,,,-8.42E-06,4.88E-01
,,,-8.40E-06,4.72E-01
,,,-8.38E-06,4.80E-01
,,,-8.36E-06,4.72E-01
,,,-8.34E-06,4.80E-01
,,,-8.32E-06,4.72E-01
,,,-8.30E-06,4.72E-01
,,,-8.28E-06,4.72E-01
,,,-8.26E-06,4.72E-01
,,,-8.24E-06,4.72E-01
,,,-8.22E-06,4.80E-01
,,,-8.20E-06,4.80E-01
,,,-8.18E-06,4.72E-01
,,,-8.16E-06,4.72E-01
,,,-8.14E-06,4.80E-01
,,,-8.12E-06,4.72E-01
,,,-8.10E-06,4.72E-01
,,,-8.08E-06,4.64E-01
,,,-8.06E-06,4.72E-01
,,,-8.04E-06,4.80E-01
,,,-8.02E-06,4.80E-01
,,,-8.00E-06,4.72E-01
,,,-7.98E-06,4.72E-01
,,,-7.96E-06,4.72E-01
,,,-7.94E-06,4.72E-01
,,,-7.92E-06,4.72E-01
,,,-7.90E-06,4.72E-01
,,,-7.88E-06,4.72E-01
,,,-7.86E-06,4.72E-01
,,,-7.84E-06,4.72E-01
,,,-7.82E-06,4.80E-01
,,,-7.80E-06,4.72E-01
,,,-7.78E-06,4.72E-01
,,,-7.76E-06,4.64E-01
,,,-7.74E-06,4.72E-01
,,,-7.72E-06,4.64E-01
,,,-7.70E-06,4.64E-01
,,,-7.68E-06,4.72E-01
,,,-7.66E-06,4.64E-01
,,,-7.64E-06,4.64E-01
,,,-7.62E-06,4.64E-01
,,,-7.60E-06,4.72E-01
,,,-7.58E-06,4.64E-01
,,,-7.56E-06,4.64E-01
,,,-7.54E-06,4.72E-01
,,,-7.52E-06,4.64E-01
,,,-7.50E-06,4.64E-01
,,,-7.48E-06,4.72E-01
,,,-7.46E-06,4.72E-01
,,,-7.44E-06,4.72E-01
,,,-7.42E-06,4.72E-01
,,,-7.40E-06,4.72E-01
,,,-7.38E-06,4.64E-01
,,,-7.36E-06,4.64E-01
,,,-7.34E-06,4.64E-01
,,,-7.32E-06,4.56E-01
,,,-7.30E-06,4.72E-01
,,,-7.28E-06,4.64E-01
,,,-7.26E-06,4.56E-01
,,,-7.24E-06,4.64E-01
,,,-7.22E-06,4.56E-01
,,,-7.20E-06,4.64E-01
,,,-7.18E-06,4.64E-01
,,,-7.16E-06,4.64E-01
,,,-7.14E-06,4.56E-01
,,,-7.12E-06,4.56E-01
,,,-7.10E-06,4.64E-01
,,,-7.08E-06,4.56E-01
